<?xml version="1.0" encoding="UTF-8"?>
<testng-results skipped="0" failed="1" total="3" passed="2">
  <reporter-output>
  </reporter-output>
  <suite name="Test Suite" duration-ms="73542" started-at="2017-02-13T13:27:04Z" finished-at="2017-02-13T13:28:18Z">
    <groups>
    </groups>
    <test name="testing" duration-ms="73542" started-at="2017-02-13T13:27:04Z" finished-at="2017-02-13T13:28:18Z">
      <class name="TestCases.LoginPageCases.LoginTests">
        <test-method status="PASS" signature="beforeSuite()[pri:0, instance:TestCases.LoginPageCases.LoginTests@58da88fb]" name="beforeSuite" is-config="true" duration-ms="109" started-at="2017-02-13T18:57:04Z" finished-at="2017-02-13T18:57:04Z">
          <reporter-output>
          </reporter-output>
        </test-method> <!-- beforeSuite -->
        <test-method status="PASS" signature="start()[pri:0, instance:TestCases.LoginPageCases.LoginTests@58da88fb]" name="start" is-config="true" duration-ms="5915" started-at="2017-02-13T18:57:04Z" finished-at="2017-02-13T18:57:10Z">
          <reporter-output>
          </reporter-output>
        </test-method> <!-- start -->
        <test-method status="FAIL" signature="test_to_check_alert_for_email_validation()[pri:0, instance:TestCases.LoginPageCases.LoginTests@58da88fb]" name="test_to_check_alert_for_email_validation" duration-ms="52666" started-at="2017-02-13T18:57:10Z" finished-at="2017-02-13T18:58:03Z">
          <exception class="org.openqa.selenium.TimeoutException">
            <message>
              <![CDATA[Timed out after 45 seconds waiting for text ('Please enter Valid email id .') to be present in element div
Build info: version: '2.53.1', revision: 'a36b8b1cd5757287168e54b817830adce9b0158d', time: '2016-06-30 19:26:09'
System info: host: 'QA-LP-002', ip: '192.168.0.240', os.name: 'Windows 8', os.arch: 'amd64', os.version: '6.2', java.version: '1.7.0_45'
Driver info: org.openqa.selenium.support.events.EventFiringWebDriver]]>
            </message>
            <full-stacktrace>
              <![CDATA[org.openqa.selenium.TimeoutException: Timed out after 45 seconds waiting for text ('Please enter Valid email id .') to be present in element div
Build info: version: '2.53.1', revision: 'a36b8b1cd5757287168e54b817830adce9b0158d', time: '2016-06-30 19:26:09'
System info: host: 'QA-LP-002', ip: '192.168.0.240', os.name: 'Windows 8', os.arch: 'amd64', os.version: '6.2', java.version: '1.7.0_45'
Driver info: org.openqa.selenium.support.events.EventFiringWebDriver
	at org.openqa.selenium.support.ui.WebDriverWait.timeoutException(WebDriverWait.java:80)
	at org.openqa.selenium.support.ui.FluentWait.until(FluentWait.java:261)
	at PageObjects.BasePageObject.waitForTextToBePresentInElementByElement(BasePageObject.java:663)
	at PageObjects.LoginPage.LoginPageObjects.capture_alert_password(LoginPageObjects.java:88)
	at TestCases.LoginPageCases.LoginTests.test_to_check_alert_for_email_validation(LoginTests.java:61)
	at sun.reflect.NativeMethodAccessorImpl.invoke0(Native Method)
	at sun.reflect.NativeMethodAccessorImpl.invoke(NativeMethodAccessorImpl.java:57)
	at sun.reflect.DelegatingMethodAccessorImpl.invoke(DelegatingMethodAccessorImpl.java:43)
	at java.lang.reflect.Method.invoke(Method.java:606)
	at org.testng.internal.MethodInvocationHelper.invokeMethod(MethodInvocationHelper.java:84)
	at org.testng.internal.Invoker.invokeMethod(Invoker.java:714)
	at org.testng.internal.Invoker.invokeTestMethod(Invoker.java:901)
	at org.testng.internal.Invoker.invokeTestMethods(Invoker.java:1231)
	at org.testng.internal.TestMethodWorker.invokeTestMethods(TestMethodWorker.java:127)
	at org.testng.internal.TestMethodWorker.run(TestMethodWorker.java:111)
	at org.testng.TestRunner.privateRun(TestRunner.java:767)
	at org.testng.TestRunner.run(TestRunner.java:617)
	at org.testng.SuiteRunner.runTest(SuiteRunner.java:348)
	at org.testng.SuiteRunner.runSequentially(SuiteRunner.java:343)
	at org.testng.SuiteRunner.privateRun(SuiteRunner.java:305)
	at org.testng.SuiteRunner.run(SuiteRunner.java:254)
	at org.testng.SuiteRunnerWorker.runSuite(SuiteRunnerWorker.java:52)
	at org.testng.SuiteRunnerWorker.run(SuiteRunnerWorker.java:86)
	at org.testng.TestNG.runSuitesSequentially(TestNG.java:1224)
	at org.testng.TestNG.runSuitesLocally(TestNG.java:1149)
	at org.testng.TestNG.run(TestNG.java:1057)
	at org.apache.maven.surefire.testng.TestNGExecutor.run(TestNGExecutor.java:295)
	at org.apache.maven.surefire.testng.TestNGXmlTestSuite.execute(TestNGXmlTestSuite.java:84)
	at org.apache.maven.surefire.testng.TestNGProvider.invoke(TestNGProvider.java:90)
	at org.apache.maven.surefire.booter.ForkedBooter.invokeProviderInSameClassLoader(ForkedBooter.java:203)
	at org.apache.maven.surefire.booter.ForkedBooter.runSuitesInProcess(ForkedBooter.java:155)
	at org.apache.maven.surefire.booter.ForkedBooter.main(ForkedBooter.java:103)
]]>
            </full-stacktrace>
          </exception> <!-- org.openqa.selenium.TimeoutException -->
          <reporter-output>
          </reporter-output>
        </test-method> <!-- test_to_check_alert_for_email_validation -->
        <test-method status="PASS" signature="test_to_check_mandatory_field_alert_in_login()[pri:0, instance:TestCases.LoginPageCases.LoginTests@58da88fb]" name="test_to_check_mandatory_field_alert_in_login" duration-ms="6965" started-at="2017-02-13T18:58:03Z" finished-at="2017-02-13T18:58:10Z">
          <reporter-output>
          </reporter-output>
        </test-method> <!-- test_to_check_mandatory_field_alert_in_login -->
        <test-method status="PASS" signature="test_to_check_mandatory_field_alert_in_password()[pri:0, instance:TestCases.LoginPageCases.LoginTests@58da88fb]" name="test_to_check_mandatory_field_alert_in_password" duration-ms="6195" started-at="2017-02-13T18:58:10Z" finished-at="2017-02-13T18:58:17Z">
          <reporter-output>
          </reporter-output>
        </test-method> <!-- test_to_check_mandatory_field_alert_in_password -->
        <test-method status="PASS" signature="stop()[pri:0, instance:TestCases.LoginPageCases.LoginTests@58da88fb]" name="stop" is-config="true" duration-ms="1393" started-at="2017-02-13T18:58:17Z" finished-at="2017-02-13T18:58:18Z">
          <reporter-output>
          </reporter-output>
        </test-method> <!-- stop -->
      </class> <!-- TestCases.LoginPageCases.LoginTests -->
    </test> <!-- testing -->
  </suite> <!-- Test Suite -->
</testng-results>
